C:\Users\id20445\Desktop\evafinalfsoto\src\main\java\root\dao\exceptions\NonexistentEntityException.java
C:\Users\id20445\Desktop\evafinalfsoto\src\main\java\root\controller\Controller.java
C:\Users\id20445\Desktop\evafinalfsoto\src\main\java\root\persistence\entities\Resultado.java
C:\Users\id20445\Desktop\evafinalfsoto\src\main\java\root\resources\JavaEE8Resource.java
C:\Users\id20445\Desktop\evafinalfsoto\src\main\java\root\services\DiccionarioRest.java
C:\Users\id20445\Desktop\evafinalfsoto\src\main\java\root\dao\DiccionarioDAO.java
C:\Users\id20445\Desktop\evafinalfsoto\src\main\java\root\dao\exceptions\PreexistingEntityException.java
C:\Users\id20445\Desktop\evafinalfsoto\src\main\java\root\JAXRSConfiguration.java
C:\Users\id20445\Desktop\evafinalfsoto\src\main\java\root\persistence\entities\Diccionario.java
C:\Users\id20445\Desktop\evafinalfsoto\src\main\java\root\services\AppConfig.java
C:\Users\id20445\Desktop\evafinalfsoto\src\main\java\root\dao\exceptions\IllegalOrphanException.java
